CompArch/Lab_exc/Lab2/tb_mux16to1_glvl.vcd
$date
	Wed Oct 30 08:19:47 2019
$end
$version
	Icarus Verilog
$end
$timescale
	1s
$end
$scope module tb_mux16to1_glvl $end
$var wire 1 ! outp $end
$var reg 16 " inp [15:0] $end
$var reg 4 # sel [3:0] $end
$scope module mux $end
$var wire 16 $ inp [15:0] $end
$var wire 4 % sel [3:0] $end
$var wire 1 ! outp $end
$var wire 4 & muxOuts [3:0] $end
$scope begin mux4to1[0] $end
$scope module mux $end
$var wire 1 ' case1 $end
$var wire 1 ( case2 $end
$var wire 1 ) case3 $end
$var wire 1 * case4 $end
$var wire 4 + inp [3:0] $end
$var wire 1 , outp $end
$var wire 2 - sel [1:0] $end
$var wire 2 . selBar [1:0] $end
$upscope $end
$upscope $end
$scope begin mux4to1[1] $end
$scope module mux $end
$var wire 1 / case1 $end
$var wire 1 0 case2 $end
$var wire 1 1 case3 $end
$var wire 1 2 case4 $end
$var wire 4 3 inp [3:0] $end
$var wire 1 4 outp $end
$var wire 2 5 sel [1:0] $end
$var wire 2 6 selBar [1:0] $end
$upscope $end
$upscope $end
$scope begin mux4to1[2] $end
$scope module mux $end
$var wire 1 7 case1 $end
$var wire 1 8 case2 $end
$var wire 1 9 case3 $end
$var wire 1 : case4 $end
$var wire 4 ; inp [3:0] $end
$var wire 1 < outp $end
$var wire 2 = sel [1:0] $end
$var wire 2 > selBar [1:0] $end
$upscope $end
$upscope $end
$scope begin mux4to1[3] $end
$scope module mux $end
$var wire 1 ? case1 $end
$var wire 1 @ case2 $end
$var wire 1 A case3 $end
$var wire 1 B case4 $end
$var wire 4 C inp [3:0] $end
$var wire 1 D outp $end
$var wire 2 E sel [1:0] $end
$var wire 2 F selBar [1:0] $end
$upscope $end
$upscope $end
$scope module endMux $end
$var wire 1 G case1 $end
$var wire 1 H case2 $end
$var wire 1 I case3 $end
$var wire 1 J case4 $end
$var wire 4 K inp [3:0] $end
$var wire 1 ! outp $end
$var wire 2 L sel [1:0] $end
$var wire 2 M selBar [1:0] $end
$upscope $end
$upscope $end
$upscope $end
$enddefinitions $end
#0
$dumpvars
b11 M
b0 L
b110 K
0J
0I
0H
0G
b11 F
b0 E
0D
b0 C
0B
0A
0@
0?
b11 >
b0 =
1<
b101 ;
0:
09
08
17
b11 6
b0 5
14
b1111 3
02
01
00
1/
b11 .
b0 -
0,
b1010 +
0*
0)
0(
0'
b110 &
b0 %
b10111111010 $
b0 #
b10111111010 "
0!
$end
#5
1!
1G
0<
0/
07
b11 &
b11 K
1,
b10 .
1(
b10 6
10
b10 >
b10 F
b1 -
b1 5
b1 =
b1 E
b1 #
b1 %
#10
0!
0G
1<
11
19
0,
b110 &
b110 K
14
b1 .
0(
b1 6
00
b1 >
b1 F
b10 -
b10 5
b10 =
b10 E
b10 #
b10 %
#15
1!
1G
0<
01
09
b11 &
b11 K
1,
b0 .
1*
b0 6
12
b0 >
b0 F
b11 -
b11 5
b11 =
b11 E
b11 #
b11 %
#20
1!
1<
1/
17
0G
0,
b110 &
b110 K
14
b11 .
0*
b11 6
02
b11 >
b11 F
b10 M
1H
b0 -
b0 5
b0 =
b0 E
b1 L
b100 #
b100 %
#25
0<
0/
07
b11 &
b11 K
1,
b10 .
1(
b10 6
10
b10 >
b10 F
b1 -
b1 5
b1 =
b1 E
b101 #
b101 %
#30
1!
1H
1<
11
19
0,
b110 &
b110 K
14
b1 .
0(
b1 6
00
b1 >
b1 F
b10 -
b10 5
b10 =
b10 E
b110 #
b110 %
#35
0<
01
09
b11 &
b11 K
1,
b0 .
1*
b0 6
12
b0 >
b0 F
b11 -
b11 5
b11 =
b11 E
b111 #
b111 %
#40
1I
1<
1/
17
0,
b110 &
b110 K
14
1!
b11 .
0*
b11 6
02
b11 >
b11 F
b1 M
0H
b0 -
b0 5
b0 =
b0 E
b10 L
b1000 #
b1000 %
#45
0!
0I
0<
0/
07
b11 &
b11 K
1,
b10 .
1(
b10 6
10
b10 >
b10 F
b1 -
b1 5
b1 =
b1 E
b1001 #
b1001 %
#50
1!
1I
1<
11
19
0,
b110 &
b110 K
14
b1 .
0(
b1 6
00
b1 >
b1 F
b10 -
b10 5
b10 =
b10 E
b1010 #
b1010 %
#55
0!
0I
0<
01
09
b11 &
b11 K
1,
b0 .
1*
b0 6
12
b0 >
b0 F
b11 -
b11 5
b11 =
b11 E
b1011 #
b1011 %
#60
1<
1/
17
0,
b110 &
b110 K
14
b11 .
0*
b11 6
02
b11 >
b11 F
b0 M
b0 -
b0 5
b0 =
b0 E
b11 L
b1100 #
b1100 %
#65
0<
0/
07
b11 &
b11 K
1,
b10 .
1(
b10 6
10
b10 >
b10 F
b1 -
b1 5
b1 =
b1 E
b1101 #
b1101 %
#70
1<
11
19
0,
b110 &
b110 K
14
b1 .
0(
b1 6
00
b1 >
b1 F
b10 -
b10 5
b10 =
b10 E
b1110 #
b1110 %
#75
0<
01
09
b11 &
b11 K
1,
b0 .
1*
b0 6
12
b0 >
b0 F
b11 -
b11 5
b11 =
b11 E
b1111 #
b1111 %
